original set vals: -200.000 0.000 0.000
........................... 27
.................................................. 51
.................................................................. 67

---------
---------
07-May-2010 20:09:29 Mover 1 AQM16FF
Total time:   2.5 minutes
Tries to get to zero: 2
At zero: allpots: 5.000 5.000 5.000 ii 10 zz 0
At zero: x 0.014 0.000 y 0.060 0.000 t 0.422 -0.000
LVDT peds: 
	before:	17.000 -11.000 -58.000 
	after:	18.000 -26.000 -67.000 
At 1000/-1000/1000: x 998.694 1109.419 y -1000.615 -943.198 t 998.283 1357.903 itry 2
% diff pot/lvdt -11.073 -5.742 -35.962
At set -200/0/0: x -199.635 -194.306 y 0.227 1.842 t -4.744 11.830 itry 3
% diff pot/lvdt -266.443 -80.739 -236.765
original set vals: 0.000 0.000 0.000
 0
................................................... 52
.................................................. 51

---------
---------
07-May-2010 20:12:01 Mover 2 AQM15FF
Total time:   2.3 minutes
Tries to get to zero: 0
At zero: allpots: 5.000 5.001 5.000 ii 11 zz 1
At zero: x 1.255 0.000 y -0.388 0.000 t 3.572 -0.000
LVDT peds: 
	before:	35.000 -24.000 -159.000 
	after:	31.000 -29.000 -162.000 
At 1000/-1000/1000: x 997.816 984.467 y -1000.631 -997.637 t 995.197 1027.959 itry 2
% diff pot/lvdt 1.335 -0.299 -3.276
At set 0/0/0: x 0.664 0.518 y 0.958 0.888 t 3.159 -0.004 itry 2
% diff pot/lvdt 7.306 3.543 45.184
original set vals: -100.000 100.000 0.000
............................. 29
.................................................. 51
................................................................... 68

---------
---------
07-May-2010 20:14:19 Mover 3 AQM14FF
Total time:   2.7 minutes
Tries to get to zero: 2
At zero: allpots: 5.000 5.000 5.000 ii 10 zz 0
At zero: x 0.016 0.000 y 0.060 0.000 t 0.422 -0.000
LVDT peds: 
	before:	49.000 38.000 -68.000 
	after:	48.000 38.000 -72.000 
At 1000/-1000/1000: x 1000.873 955.839 y -999.989 -988.266 t 1002.911 980.049 itry 2
% diff pot/lvdt 4.503 -1.172 2.286
At set -100/100/0: x -101.557 -94.386 y 99.020 99.527 t -4.230 8.417 itry 3
% diff pot/lvdt -358.564 -0.507 -180.676
original set vals: 200.000 200.000 0.000
.............................. 30
............................................................... 64
................................................................... 68

---------
---------
07-May-2010 20:17:00 Mover 4 AFB2FF
Total time:   2.7 minutes
Tries to get to zero: 2
At zero: allpots: 5.000 5.000 5.000 ii 10 zz 0
At zero: x -0.016 -0.000 y 0.061 0.000 t -0.422 0.000
LVDT peds: 
	before:	-1674.000 -620.000 -2121.000 
	after:	-1697.000 -627.000 -2114.000 
At 1000/-1000/1000: x 1001.749 993.153 y -999.078 -985.944 t 1007.799 1202.700 itry 3
% diff pot/lvdt 0.860 -1.313 -19.490
At set 200/200/0: x 200.343 210.150 y 199.685 204.531 t -2.350 14.074 itry 3
% diff pot/lvdt -4.903 -2.423 -234.625
original set vals: 0.000 0.000 0.000
 0
................................................................. 66
................................................... 52

---------
---------
07-May-2010 20:19:43 Mover 5 AQM13FF
Total time:   2.6 minutes
Tries to get to zero: 0
At zero: allpots: 5.001 5.000 5.000 ii 11 zz 1
At zero: x 1.022 0.000 y 0.418 0.000 t 2.854 -0.000
LVDT peds: 
	before:	20.000 10.000 -41.000 
	after:	22.000 8.000 -39.000 
At 1000/-1000/1000: x 996.559 990.104 y -1000.600 -1000.492 t 992.461 1044.511 itry 3
% diff pot/lvdt 0.645 -0.011 -5.205
At set 0/0/0: x -0.621 -0.169 y -0.483 -0.178 t 0.113 0.010 itry 2
% diff pot/lvdt -22.619 -15.284 1.470
original set vals: 0.000 0.000 0.000
 0
................................................... 52
................................................................. 66

---------
---------
07-May-2010 20:22:18 Mover 6 AQM12FF
Total time:   2.0 minutes
Tries to get to zero: 0
At zero: allpots: 5.000 5.000 5.000 ii 11 zz 1
At zero: x -0.010 0.000 y -0.239 0.000 t -1.604 -0.000
LVDT peds: 
	before:	480.000 267.000 -489.000 
	after:	483.000 272.000 -483.000 
At 1000/-1000/1000: x 1001.134 981.774 y -1000.238 -999.054 t 1001.742 1029.778 itry 2
% diff pot/lvdt 1.936 -0.118 -2.804
At set 0/0/0: x -0.437 0.243 y -0.676 -0.087 t 1.546 1.065 itry 3
% diff pot/lvdt -34.034 -29.415 6.870
original set vals: 500.000 200.000 0.000
.................................. 34
................................................... 52
............................................... 48

---------
---------
07-May-2010 20:24:16 Mover 7 AQM11FF
Total time:   2.9 minutes
Tries to get to zero: 2
At zero: allpots: 5.000 4.999 5.000 ii 11 zz 1
At zero: x -0.202 0.000 y -0.034 0.000 t -3.037 -0.000
LVDT peds: 
	before:	35.000 -3.000 -68.000 
	after:	39.000 -5.000 -68.000 
At 1000/-1000/1000: x 1001.229 974.734 y -1000.778 -989.985 t 1000.447 1021.449 itry 2
% diff pot/lvdt 2.649 -1.079 -2.100
At set 500/200/0: x 501.197 497.786 y 200.807 200.319 t 3.411 -3.811 itry 2
% diff pot/lvdt 0.682 0.244 103.170
original set vals: 0.000 -600.000 0.000
.................................... 36
................................................... 51
........................................... 44

---------
---------
07-May-2010 20:27:08 Mover 8 AQD10BFF
Total time:   2.7 minutes
Tries to get to zero: 2
At zero: allpots: 5.000 5.000 5.000 ii 10 zz 0
At zero: x 1.028 0.000 y -0.133 0.000 t 1.852 -0.000
LVDT peds: 
	before:	40.000 49.000 -6816.000 
	after:	40.000 49.000 -6816.000 
At 1000/-1000/1000: x 999.662 395.187 y -1000.075 -988.990 t 1001.174 1010.357 itry 2
% diff pot/lvdt 60.447 -1.109 -0.918
At set 0/-600/0: x -0.439 13.587 y -599.926 -594.225 t -1.618 35.150 itry 2
% diff pot/lvdt -701.291 -285.049 -525.257
original set vals: 0.000 0.000 0.000
.............................................................................................................. 111
................................................... 52
.............................................................. 63

---------
---------
07-May-2010 20:29:48 Mover 9 AQD10AFF
Total time:   4.4 minutes
Tries to get to zero: 8
At zero: allpots: 5.000 5.000 4.999 ii 11 zz 1
At zero: x 2.025 0.000 y -0.361 0.000 t 3.285 -0.000
LVDT peds: 
	before:	52.000 31.000 -33.000 
	after:	52.000 29.000 -30.000 
At 1000/-1000/1000: x 1000.648 954.698 y -1000.993 -1000.494 t 1002.162 994.823 itry 2
% diff pot/lvdt 4.595 -0.050 0.734
At set 0/0/0: x 1.857 -0.061 y -0.133 -0.263 t 1.855 -1.054 itry 3
% diff pot/lvdt 95.896 6.471 41.554
original set vals: -200.000 0.000 0.000
............... 15
.................................................. 51
.................................................... 53

---------
---------
07-May-2010 20:34:13 Mover 10 AQF9BFF
Total time:   2.7 minutes
Tries to get to zero: 1
At zero: allpots: 5.000 5.000 5.000 ii 5 zz 3
At zero: x 0.017 0.000 y 0.062 0.000 t 0.422 -0.000
LVDT peds: 
	before:	38.000 28.000 -1183.000 
	after:	37.000 24.000 -40.000 
At 1000/-1000/1000: x 1000.655 983.106 y -999.689 -989.655 t 1001.050 1029.568 itry 2
% diff pot/lvdt 1.755 -1.003 -2.852
At set -200/0/0: x -200.093 -204.123 y -0.235 -0.180 t -1.605 -6.481 itry 2
% diff pot/lvdt 201.505 -2.727 69.661
original set vals: 0.000 60.000 0.000
......................... 25
................................... 36
................................................. 50

---------
---------
07-May-2010 20:36:58 Mover 11 ASF6FF
Total time:   2.6 minutes
Tries to get to zero: 2
At zero: allpots: 5.000 5.000 5.000 ii 5 zz 3
At zero: x 0.843 -0.000 y -0.227 0.000 t 1.604 0.000
LVDT peds: 
	before:	-38.000 -55.000 -75.000 
	after:	-36.000 -55.000 -78.000 
At 1000/-1000/1000: x 995.371 953.071 y -998.405 -996.965 t 993.822 938.889 itry 1
% diff pot/lvdt 4.230 -0.144 5.493
At set 0/60/0: x -0.678 3.636 y 59.668 60.056 t -3.400 6.524 itry 2
% diff pot/lvdt -215.708 -0.647 -141.772
original set vals: 700.000 0.000 0.000
.................... 20
..................................... 38
......................................... 42

---------
---------
07-May-2010 20:39:34 Mover 12 AQF9AFF
Total time:   2.0 minutes
Tries to get to zero: 1
At zero: allpots: 5.000 5.000 5.000 ii 10 zz 0
At zero: x 0.183 0.000 y -0.372 0.000 t 0.234 -0.000
LVDT peds: 
	before:	29.000 -12.000 -32.000 
	after:	26.000 -13.000 -31.000 
At 1000/-1000/1000: x 1005.338 979.548 y -998.927 -1000.756 t 1008.823 1011.089 itry 1
% diff pot/lvdt 2.579 0.183 -0.227
At set 700/0/0: x 698.169 705.812 y -0.968 -3.772 t -0.637 18.124 itry 2
% diff pot/lvdt -1.092 140.166 -268.021
original set vals: 0.000 0.000 0.000
 0
................................................ 49
................................................................................................................................................ 146

---------
---------
07-May-2010 20:41:34 Mover 13 AQD8FF
Total time:   3.9 minutes
Tries to get to zero: 0
At zero: allpots: 5.000 5.000 4.999 ii 11 zz 1
At zero: x 1.214 0.000 y -0.199 0.000 t 2.139 -0.000
LVDT peds: 
	before:	24.000 5.000 -49.000 
	after:	34.000 14.000 -52.000 
At 1000/-1000/1000: x 1000.911 944.042 y -999.902 -995.190 t 1002.454 932.414 itry 2
% diff pot/lvdt 5.687 -0.471 7.004
At set 0/0/0: x -3.014 -2.344 y 1.682 -0.003 t -10.469 -6.463 itry 9
% diff pot/lvdt -33.520 84.257 -57.224
original set vals: 0.000 0.000 0.000
..................................... 37
..................................... 37
............................................................................................................... 112

---------
---------
07-May-2010 20:45:27 Mover 14 AQF7FF
Total time:   4.0 minutes
Tries to get to zero: 3
At zero: allpots: 5.000 5.000 5.000 ii 5 zz 3
At zero: x -0.174 0.000 y 0.321 0.000 t -0.606 -0.000
LVDT peds: 
	before:	-1.000 -6.000 -37.000 
	after:	2.000 -2.000 -33.000 
At 1000/-1000/1000: x 998.310 975.859 y -999.577 -993.019 t 992.534 1001.482 itry 1
% diff pot/lvdt 2.245 -0.656 -0.895
At set 0/0/0: x 2.058 0.817 y 0.488 0.348 t 7.002 2.105 itry 7
% diff pot/lvdt 62.047 6.997 69.964
original set vals: 0.000 0.000 0.000
.............................................................................................................................. 128
.................................................. 51
.................................................................................................................................................... 150

---------
---------
07-May-2010 20:49:24 Mover 15 AQD6FF
Total time:   6.2 minutes
Tries to get to zero: 9
At zero: allpots: 5.001 5.000 5.001 ii 11 zz 2
At zero: x -0.375 0.000 y 0.806 0.000 t -0.705 -0.000
LVDT peds: 
	before:	-1.000 4.000 -22.000 
	after:	0.000 4.000 -10.000 
At 1000/-1000/1000: x 1001.614 1076.639 y -999.942 -1001.437 t 1001.922 1283.438 itry 2
% diff pot/lvdt -7.503 0.149 -28.152
At set 0/0/0: x -8.505 -3.987 y 1.028 0.092 t -14.926 -7.539 itry 9
% diff pot/lvdt -225.926 46.776 -105.540
original set vals: 0.000 0.000 0.000
................................................................................................................................ 130
.................................................. 51
......................................................................................................................................................... 155

---------
---------
07-May-2010 20:55:33 Mover 16 AQF5BFF
Total time:   6.2 minutes
Tries to get to zero: 9
At zero: allpots: 5.000 5.001 4.999 ii 11 zz 1
At zero: x 1.405 0.000 y -0.406 0.000 t 3.572 -0.000
LVDT peds: 
	before:	41.000 -13.000 -5619.000 
	after:	43.000 -12.000 -5618.000 
At 1000/-1000/1000: x 999.782 428.720 y -999.599 -984.997 t 999.277 1095.126 itry 2
% diff pot/lvdt 57.106 -1.460 -9.585
At set 0/0/0: x 6.102 0.239 y -0.608 -0.087 t 5.698 1.055 itry 9
% diff pot/lvdt 293.123 -26.069 66.326
original set vals: 200.000 0.000 0.000
............... 15
................................................................................................................................................................... 165
............................................................. 62

---------
---------
07-May-2010 21:01:44 Mover 17 ASF5FF
Total time:   4.6 minutes
Tries to get to zero: 1
At zero: allpots: 5.001 4.999 5.000 ii 11 zz 1
At zero: x -0.625 -0.000 y 0.922 0.000 t -0.105 0.000
LVDT peds: 
	before:	-89.000 -109.000 -172.000 
	after:	-83.000 -109.000 -171.000 
At 1000/-1000/1000: x 1000.337 963.119 y -1000.052 -996.131 t 999.935 955.301 itry 3
% diff pot/lvdt 3.722 -0.392 4.463
At set 200/0/0: x 198.929 196.829 y 1.223 0.877 t -2.143 -8.587 itry 3
% diff pot/lvdt 1.050 17.336 92.057
original set vals: 0.000 0.000 0.000
 0
.................................................. 51
............................................................ 61

---------
---------
07-May-2010 21:06:23 Mover 18 AQF5AFF
Total time:   1.9 minutes
Tries to get to zero: 0
At zero: allpots: 5.000 5.000 5.000 ii 11 zz 1
At zero: x 0.009 0.000 y 0.118 0.000 t 0.827 -0.000
LVDT peds: 
	before:	27.000 -18.000 49.000 
	after:	35.000 -13.000 45.000 
At 1000/-1000/1000: x 998.274 992.703 y -1000.445 -989.095 t 994.414 1037.915 itry 2
% diff pot/lvdt 0.557 -1.135 -4.350
At set 0/0/0: x 1.022 -0.830 y -0.085 -0.000 t 2.261 -2.116 itry 3
% diff pot/lvdt 92.582 -4.229 62.522
original set vals: 10.929 7.431 17.266
......................... 25
.................................................. 51
.................................................. 51

---------
---------
07-May-2010 21:08:14 Mover 19 AQD4BFF
Total time:   2.1 minutes
Tries to get to zero: 2
At zero: allpots: 5.000 5.000 5.000 ii 11 zz 1
At zero: x -0.837 0.000 y -0.171 0.000 t -1.199 -0.000
LVDT peds: 
	before:	27.000 -15.000 60.000 
	after:	32.000 -19.000 62.000 
At 1000/-1000/1000: x 1001.352 969.553 y -998.949 -1001.133 t 1003.879 998.548 itry 2
% diff pot/lvdt 3.180 0.218 0.533
At set 11/7/17: x 9.128 6.234 y 8.633 6.420 t 12.989 6.082 itry 2
% diff pot/lvdt 26.486 29.783 40.003
original set vals: 0.000 300.000 0.000
.................................................... 53
................................................ 49
..................................................... 54

---------
---------
07-May-2010 21:10:22 Mover 20 ASD4FF
Total time:   3.5 minutes
Tries to get to zero: 4
At zero: allpots: 5.000 5.000 5.000 ii 5 zz 3
At zero: x 0.177 -0.000 y 0.317 0.000 t 0.606 0.000
LVDT peds: 
	before:	-112.000 -106.000 -35.000 
	after:	-107.000 -101.000 -33.000 
At 1000/-1000/1000: x 998.137 951.617 y -999.215 -999.544 t 997.667 921.690 itry 2
% diff pot/lvdt 4.652 0.033 7.598
At set 0/300/0: x -1.291 1.525 y 300.129 299.597 t -4.046 7.908 itry 2
% diff pot/lvdt -140.838 0.177 -170.764
original set vals: 0.000 0.000 0.000
 0
................................................... 51
................................................. 50

---------
---------
07-May-2010 21:13:51 Mover 21 AQD4AFF
Total time:   1.9 minutes
Tries to get to zero: 0
At zero: allpots: 5.000 5.000 5.000 ii 10 zz 0
At zero: x 0.010 0.000 y 0.119 0.000 t 0.827 -0.000
LVDT peds: 
	before:	-48.000 -24.000 113.000 
	after:	-43.000 -19.000 122.000 
At 1000/-1000/1000: x 998.345 935.553 y -1000.382 -996.476 t 998.189 938.417 itry 2
% diff pot/lvdt 6.279 -0.391 5.977
At set 0/0/0: x -1.382 -2.776 y 0.572 0.268 t -2.326 -7.517 itry 2
% diff pot/lvdt 69.741 15.204 74.154
original set vals: 0.000 0.000 0.000
 0
................................................. 50
................................................. 50

---------
---------
07-May-2010 21:15:45 Mover 22 AQF3FF
Total time:   1.8 minutes
Tries to get to zero: 0
At zero: allpots: 5.000 5.000 5.000 ii 10 zz 0
At zero: x 0.004 0.000 y 0.104 0.000 t 0.827 -0.000
LVDT peds: 
	before:	35.000 -16.000 112.000 
	after:	41.000 -13.000 99.000 
At 1000/-1000/1000: x 998.957 962.163 y -1000.236 -964.604 t 997.037 985.100 itry 2
% diff pot/lvdt 3.679 -3.563 1.194
At set 0/0/0: x -2.513 0.993 y 0.870 0.439 t -7.503 -1.058 itry 2
% diff pot/lvdt -175.277 21.558 -92.060
original set vals: 0.000 0.000 0.000
 0
.................................................. 51
..................................................................................................... 102

---------
---------
07-May-2010 21:17:30 Mover 23 AQD2BFF
Total time:   3.2 minutes
Tries to get to zero: 0
At zero: allpots: 5.000 5.000 4.999 ii 11 zz 1
At zero: x 1.222 0.000 y -0.327 0.000 t 1.329 -0.000
LVDT peds: 
	before:	99.000 47.000 107.000 
	after:	98.000 42.000 106.000 
At 1000/-1000/1000: x 999.294 994.531 y -1000.648 -998.142 t 996.438 1028.462 itry 2
% diff pot/lvdt 0.476 -0.251 -3.202
At set 0/0/0: x 1.892 0.404 y 0.686 0.446 t 5.285 1.018 itry 6
% diff pot/lvdt 74.418 12.031 60.959
original set vals: 0.000 0.000 0.000
 0
.................................................. 51
............................................................. 62

---------
---------
07-May-2010 21:20:41 Mover 24 AQD2AFF
Total time:   1.9 minutes
Tries to get to zero: 0
At zero: allpots: 5.000 5.000 5.000 ii 11 zz 1
At zero: x -1.019 0.000 y 0.064 0.000 t -2.632 -0.000
LVDT peds: 
	before:	16.000 -34.000 20.000 
	after:	18.000 -31.000 11.000 
At 1000/-1000/1000: x 996.926 949.429 y -1000.328 -973.325 t 992.875 956.549 itry 2
% diff pot/lvdt 4.750 -2.700 3.633
At set 0/0/0: x 1.025 0.906 y -0.112 0.531 t 2.261 0.049 itry 3
% diff pot/lvdt 5.919 -32.152 31.588
original set vals: -480.000 230.000 0.000
.................................. 34
................................................. 50
......................................................................... 74

---------
---------
07-May-2010 21:22:34 Mover 25 ASF1FF
Total time:   2.7 minutes
Tries to get to zero: 2
At zero: allpots: 5.000 5.000 5.000 ii 10 zz 0
At zero: x 0.032 -0.000 y 0.318 0.000 t 0.606 0.000
LVDT peds: 
	before:	13.000 -177.000 -81.000 
	after:	20.000 -176.000 -85.000 
At 1000/-1000/1000: x 1000.358 976.690 y -999.628 -1006.417 t 1002.287 921.589 itry 2
% diff pot/lvdt 2.367 0.679 8.070
At set -480/230/0: x -481.149 -481.506 y 229.959 234.273 t -1.543 26.447 itry 3
% diff pot/lvdt 17.874 -1.876 -399.861
original set vals: 250.000 0.000 1400.000
................ 16
................................................. 50
.................................................... 53

---------
---------
07-May-2010 21:25:18 Mover 26 AQF1FF
Total time:   2.1 minutes
Tries to get to zero: 1
At zero: allpots: 5.000 5.000 5.000 ii 10 zz 0
At zero: x -0.114 -0.000 y -0.086 0.000 t 0.388 0.000
LVDT peds: 
	before:	-268.000 -372.000 1845.000 
	after:	-261.000 -373.000 1855.000 
At 1000/-1000/1000: x 999.213 1014.339 y -1000.259 -934.954 t 1001.206 950.486 itry 2
% diff pot/lvdt -1.513 -6.530 5.072
At set 250/0/1400: x 248.863 248.765 y 1.031 104.272 t 1395.275 1661.847 itry 2
% diff pot/lvdt 0.039 -5162.041 -19.041
original set vals: -900.000 -300.000 0.000
........................................ 40
.................................................. 51
................................................................................................ 97

---------
---------
07-May-2010 21:27:24 Mover 27 ASD0FF
Total time:   3.8 minutes
Tries to get to zero: 2
At zero: allpots: 5.001 4.999 5.000 ii 11 zz 1
At zero: x -1.084 -0.000 y 0.845 0.000 t -2.349 0.000
LVDT peds: 
	before:	-84.000 -107.000 148.000 
	after:	-84.000 -106.000 158.000 
At 1000/-1000/1000: x 998.356 973.296 y -999.208 -993.350 t 988.782 1001.304 itry 2
% diff pot/lvdt 2.506 -0.586 -1.252
At set -900/-300/0: x -901.816 -881.360 y -298.572 -297.188 t -5.261 24.832 itry 5
% diff pot/lvdt -1022.836 -69.194 -429.891
original set vals: 100.000 200.000 700.000
............................. 29
................................................. 50
...................................................... 55

---------
---------
07-May-2010 21:31:12 Mover 28 AQD0FF
Total time:   2.2 minutes
Tries to get to zero: 2
At zero: allpots: 5.000 5.000 5.000 ii 11 zz 1
At zero: x 0.236 -0.000 y 0.184 0.000 t -0.827 0.000
LVDT peds: 
	before:	209.000 98.000 -1117.000 
	after:	201.000 106.000 -1100.000 
At 1000/-1000/1000: x 998.034 957.411 y -998.582 -937.697 t 994.866 1218.001 itry 2
% diff pot/lvdt 4.062 -6.089 -22.314
At set 100/200/700: x 100.844 87.210 y 198.877 241.471 t 704.643 721.848 itry 2
% diff pot/lvdt 13.634 -21.297 -2.458
