                                                  
                                                  
= = = = = = = = = = = = = = = = = = = = = =   n e w   t r a c k   = = = = = = = = = = = = = = = = = =
      
      
i t e r n u m


1
   
   
x r m s


0.0095777
   
   
y r m s


0.024614
  
  
h o r


-0.00021278
-0.00028516
-0.00026384
0.004948
0.011436
0.0056022
0.002385
0.0010038
-0.0041937
-0.0095911
-0.018695
2.6504e-021
-0.032902
-0.00059641
0.013413
0.0065444
0.006845
0.0021949
-0.0005733
0.00012501
9.5253e-005
-0.0027996
   
   
v e r t


-0.0002128
-0.00079541
0.0036327
0.02642
0.016315
0.015202
0.021823
-0.0076102
0.0016886
0.0081026
-0.045821
-3.1406e-021
-0.042787
0.047502
0.033624
0.049776
0.024097
0.03206
0.00861
-0.0046882
-0.0021684
0.0036096
                          
                          
- - - - - - - - - - - - - - - - - - - - - - - - - - -
      
      
h o r c o r r


-0.0054417
0.0027831
-0.0045756
-0.0021629
-0.0018901
0.00070471
0.0057147
-0.0026993
0.0034618
-0.0043734
-0.0032389
0.0020796
0.0014656
       
       
v e r t c o r r


-0.0020041
-0.0098816
0.014377
-0.0025131
-0.0037188
0.0021506
0.001489
-0.00067268
-0.0080742
-0.0017416
-0.012798
                
                
m i d - p o i n t   h o r c o r r


-0.0027208
0.0013915
-0.0022878
-0.0010815
-0.00094504
0.00035235
0.0028574
-0.0013497
0.0017309
-0.0021867
-0.0016195
0.0010398
0.00073281
                 
                 
m i d - p o i n t   v e r t c o r r


-0.001002
-0.0049408
0.0071884
-0.0012566
-0.0018594
0.0010753
0.0007445
-0.00033634
-0.0040371
-0.00087078
-0.0063992
              
              
f u l l   c o r r e c t i o n
       
       
h o r s e t p t
            
            
-0.0020355 0.0015986 -0.0030165 0.0017404 -0.0068922 0.0042367 -0.0022689 -6.358e-006 -0.0044298 0.0011976 -0.00095777 0.0012607 0.0059201
        
        
v e r t s e t p t
          
          
0.0084937 -0.009051 0.014127 -0.01234 0.02749 -0.027885 -0.066716 -0.063351 0.0052075 0.003846 -0.010766
